#-----------------------------------------------------------
# PlanAhead v14.7 (64-bit)
# Build 321239 by xbuild on Fri Sep 27 19:29:51 MDT 2013
# Start of session at: Wed Nov 26 11:34:03 2014
# Process ID: 6252
# Log file: C:/Users/takayuki/Documents/PT6/PT6gl_13/planAhead_run_1/planAhead.log
# Journal file: C:/Users/takayuki/Documents/PT6/PT6gl_13/planAhead_run_1/planAhead.jou
#-----------------------------------------------------------
INFO: [Common 17-78] Attempting to get a license: PlanAhead
INFO: [Common 17-290] Got license for PlanAhead
INFO: [Common 17-86] Your PlanAhead license expires in -87 day(s)
INFO: [Device 21-36] Loading parts and site information from C:/Xilinx/14.7/ISE_DS/PlanAhead/data/parts/arch.xml
Parsing RTL primitives file [C:/Xilinx/14.7/ISE_DS/PlanAhead/data/parts/xilinx/rtl/prims/rtl_prims.xml]
Finished parsing RTL primitives file [C:/Xilinx/14.7/ISE_DS/PlanAhead/data/parts/xilinx/rtl/prims/rtl_prims.xml]
start_gui
source C:/Users/takayuki/Documents/PT6/PT6gl_13/pa.fromNcd.tcl
# create_project -name PT6_gl1TCP -dir "C:/Users/takayuki/Documents/PT6/PT6gl_13/planAhead_run_1" -part xc6slx150tfgg676-2
# set srcset [get_property srcset [current_run -impl]]
# set_property design_mode GateLvl $srcset
# set_property edif_top_file "C:/Users/takayuki/Documents/PT6/PT6gl_13/gl1TCP.ngc" [ get_property srcset [ current_run ] ]
# add_files -norecurse { {C:/Users/takayuki/Documents/PT6/PT6gl_13} {ipcore_dir} }
# add_files [list {ipcore_dir/fifo_generator_16to8.ncf}] -fileset [get_property constrset [current_run]]
# set_property target_constrs_file "gl1TCP.ucf" [current_fileset -constrset]
Adding file 'C:/Users/takayuki/Documents/PT6/PT6gl_13/gl1TCP.ucf' to fileset 'constrs_1'
# add_files [list {gl1TCP.ucf}] -fileset [get_property constrset [current_run]]
# link_design
Design is defaulting to srcset: sources_1
Design is defaulting to constrset: constrs_1
Design is defaulting to project part: xc6slx150tfgg676-2
Release 14.7 - ngc2edif P.20131013 (nt64)
Copyright (c) 1995-2013 Xilinx, Inc.  All rights reserved.
Reading design gl1TCP.ngc ...
WARNING:NetListWriters:298 - No output is written to gl1TCP.xncf, ignored.
Processing design ...
   Preping design's networks ...
   Preping design's macros ...
WARNING:NetListWriters:306 - Signal bus RBCP_ADDR<31 : 0> on block gl1TCP is not
   reconstructed, because there are some missing bus signals.
WARNING:NetListWriters:306 - Signal bus vmeif/data_out<15 : 0> on block gl1TCP
   is not reconstructed, because there are some missing bus signals.
WARNING:NetListWriters:306 - Signal bus vmeif/_n0045<15 : 0> on block gl1TCP is
   not reconstructed, because there are some missing bus signals.
WARNING:NetListWriters:306 - Signal bus RBCP_REG/irAddr<31 : 0> on block gl1TCP
   is not reconstructed, because there are some missing bus signals.
  finished :Prep
Writing EDIF netlist file gl1TCP.edif ...
ngc2edif: Total memory usage is 82832 kilobytes

Parsing EDIF File [./planAhead_run_1/PT6_gl1TCP.data/cache/gl1TCP_ngc_zx.edif]
Finished Parsing EDIF File [./planAhead_run_1/PT6_gl1TCP.data/cache/gl1TCP_ngc_zx.edif]
Release 14.7 - ngc2edif P.20131013 (nt64)
Copyright (c) 1995-2013 Xilinx, Inc.  All rights reserved.
Reading design SiTCP_XC6S_16K_BBT_V80.ngc ...
WARNING:NetListWriters:298 - No output is written to
   SiTCP_XC6S_16K_BBT_V80.xncf, ignored.
Processing design ...
   Preping design's networks ...
   Preping design's macros ...
WARNING:NetListWriters:306 - Signal bus SiTCP/TCP/TCP_PRE/rcvdCode[4 : 0] on
   block SiTCP_XC6S_16K_BBT_V80 is not reconstructed, because there are some
   missing bus signals.
WARNING:NetListWriters:306 - Signal bus SiTCP/UDP/UDP_PRE/udpProcStartDly[8 : 1]
   on block SiTCP_XC6S_16K_BBT_V80 is not reconstructed, because there are some
   missing bus signals.
WARNING:NetListWriters:306 - Signal bus GMII/GMII_RXCNT/muxFlowMac[7 : 0] on
   block SiTCP_XC6S_16K_BBT_V80 is not reconstructed, because there are some
   missing bus signals.
WARNING:NetListWriters:306 - Signal bus GMII/GMII_TXBUF/prmblData[3 : 0] on
   block SiTCP_XC6S_16K_BBT_V80 is not reconstructed, because there are some
   missing bus signals.
WARNING:NetListWriters:306 - Signal bus SiTCP/TCP/TCP_PRE/tcpProcStartDly[15 :
   0] on block SiTCP_XC6S_16K_BBT_V80 is not reconstructed, because there are
   some missing bus signals.
WARNING:NetListWriters:306 - Signal bus
   SiTCP/TCP/TCP_MNGR/preDataDlyA[7]_GND_21_o_mux_19_OUT[7 : 0] on block
   SiTCP_XC6S_16K_BBT_V80 is not reconstructed, because there are some missing
   bus signals.
WARNING:NetListWriters:306 - Signal bus SiTCP/TCP/TCP_MNGR/preCmpValDly[2 : 0]
   on block SiTCP_XC6S_16K_BBT_V80 is not reconstructed, because there are some
   missing bus signals.
WARNING:NetListWriters:306 - Signal bus SiTCP/TCP/TCP_MNGR/irPreCode[4 : 0] on
   block SiTCP_XC6S_16K_BBT_V80 is not reconstructed, because there are some
   missing bus signals.
WARNING:NetListWriters:306 - Signal bus SiTCP/TCP/TCP_TXCNT/payStart[3 : 0] on
   block SiTCP_XC6S_16K_BBT_V80 is not reconstructed, because there are some
   missing bus signals.
WARNING:NetListWriters:306 - Signal bus SiTCP/TCP/TCP_TXCNT/txStart[3 : 0] on
   block SiTCP_XC6S_16K_BBT_V80 is not reconstructed, because there are some
   missing bus signals.
WARNING:NetListWriters:306 - Signal bus SiTCP/TCP/TCP_TXCNT/memRdPrmLd[4 : 0] on
   block SiTCP_XC6S_16K_BBT_V80 is not reconstructed, because there are some
   missing bus signals.
WARNING:NetListWriters:306 - Signal bus SiTCP/ECIF_RX/irTxEcifAck[2 : 0] on
   block SiTCP_XC6S_16K_BBT_V80 is not reconstructed, because there are some
   missing bus signals.
WARNING:NetListWriters:306 - Signal bus SiTCP/UDP/UDP_LOC/preSoHd[2 : 0] on
   block SiTCP_XC6S_16K_BBT_V80 is not reconstructed, because there are some
   missing bus signals.
WARNING:NetListWriters:306 - Signal bus SiTCP/ECIF_TX/ipHdTim[9 : 0] on block
   SiTCP_XC6S_16K_BBT_V80 is not reconstructed, because there are some missing
   bus signals.
WARNING:NetListWriters:306 - Signal bus
   SiTCP_INT/SiTCP_INT_REG/irAddr[3]_X3FData[7]_wide_mux_250_OUT[31 : 0] on
   block SiTCP_XC6S_16K_BBT_V80 is not reconstructed, because there are some
   missing bus signals.
WARNING:NetListWriters:306 - Signal bus SiTCP_INT/SiTCP_INT_REG/muxData[31 : 0]
   on block SiTCP_XC6S_16K_BBT_V80 is not reconstructed, because there are some
   missing bus signals.
  finished :Prep
Writing EDIF netlist file SiTCP_XC6S_16K_BBT_V80.edif ...
ngc2edif: Total memory usage is 99792 kilobytes

Reading core file 'C:/Users/takayuki/Documents/PT6/PT6gl_13/SiTCP_XC6S_16K_BBT_V80.ngc' for (cell view 'SiTCP_XC6S_16K_BBT_V80', library 'gl1TCP_lib', file 'gl1TCP.ngc')
Parsing EDIF File [./planAhead_run_1/PT6_gl1TCP.data/cache/SiTCP_XC6S_16K_BBT_V80_ngc_zx.edif]
Finished Parsing EDIF File [./planAhead_run_1/PT6_gl1TCP.data/cache/SiTCP_XC6S_16K_BBT_V80_ngc_zx.edif]
Release 14.7 - ngc2edif P.20131013 (nt64)
Copyright (c) 1995-2013 Xilinx, Inc.  All rights reserved.
Reading design fifo_generator_16to8.ngc ...
WARNING:NetListWriters:298 - No output is written to fifo_generator_16to8.xncf,
   ignored.
Processing design ...
   Preping design's networks ...
   Preping design's macros ...
  finished :Prep
Writing EDIF netlist file fifo_generator_16to8.edif ...
ngc2edif: Total memory usage is 82384 kilobytes

Reading core file 'C:/Users/takayuki/Documents/PT6/PT6gl_13/ipcore_dir/fifo_generator_16to8.ngc' for (cell view 'fifo_generator_16to8', library 'gl1TCP_lib', file 'gl1TCP.ngc')
Parsing EDIF File [./planAhead_run_1/PT6_gl1TCP.data/cache/fifo_generator_16to8_ngc_zx.edif]
Finished Parsing EDIF File [./planAhead_run_1/PT6_gl1TCP.data/cache/fifo_generator_16to8_ngc_zx.edif]
INFO: [Netlist 29-17] Analyzing 20 Unisim elements for replacement
INFO: [Netlist 29-28] Unisim Transformation completed in 0 CPU seconds
WARNING: [Netlist 29-43] Netlist 'gl1TCP' is not ideal for floorplanning, since the cellview 'SiTCP_XC6S_16K_BBT_V80' defined in file 'SiTCP_XC6S_16K_BBT_V80.ngc' contains large number of primitives.  Please consider enabling hierarchy in synthesis if you want to do floorplanning.
Loading clock regions from C:/Xilinx/14.7/ISE_DS/PlanAhead/data\parts/xilinx/spartan6/spartan6lxt/xc6slx150t/ClockRegion.xml
Loading clock buffers from C:/Xilinx/14.7/ISE_DS/PlanAhead/data\parts/xilinx/spartan6/spartan6lxt/xc6slx150t/ClockBuffers.xml
Loading package pin functions from C:/Xilinx/14.7/ISE_DS/PlanAhead/data\parts/xilinx/spartan6/PinFunctions.xml...
Loading package from C:/Xilinx/14.7/ISE_DS/PlanAhead/data\parts/xilinx/spartan6/spartan6lxt/xc6slx150t/fgg676/Package.xml
Loading io standards from C:/Xilinx/14.7/ISE_DS/PlanAhead/data\./parts/xilinx/spartan6/IOStandards.xml
Loading device configuration modes from C:/Xilinx/14.7/ISE_DS/PlanAhead/data\parts/xilinx/spartan6/ConfigModes.xml
Loading list of drcs for the architecture : C:/Xilinx/14.7/ISE_DS/PlanAhead/data\./parts/xilinx/spartan6/drc.xml
Parsing UCF File [C:/Users/takayuki/Documents/PT6/PT6gl_13/ipcore_dir/fifo_generator_16to8.ncf]
Finished Parsing UCF File [C:/Users/takayuki/Documents/PT6/PT6gl_13/ipcore_dir/fifo_generator_16to8.ncf]
Parsing UCF File [C:/Users/takayuki/Documents/PT6/PT6gl_13/gl1TCP.ucf]
Finished Parsing UCF File [C:/Users/takayuki/Documents/PT6/PT6gl_13/gl1TCP.ucf]
INFO: [Project 1-111] Unisim Transformation Summary:
  A total of 20 instances were transformed.
  AUTOBUF => BUFG: 2 instances
  BUFGP => BUFGP (IBUF, BUFG): 1 instances
  IOBUF => IOBUF (OBUFT, IBUF): 9 instances
  RAM16X1S => RAM16X1S (RAMS32, GND): 8 instances

Phase 0 | Netlist Checksum: bc2a1846
link_design: Time (s): elapsed = 00:00:17 . Memory (MB): peak = 647.609 ; gain = 210.621
# read_xdl -file "C:/Users/takayuki/Documents/PT6/PT6gl_13/gl1TCP.ncd"
Release 14.7 - xdl P.20131013 (nt64)
Copyright (c) 1995-2013 Xilinx, Inc.  All rights reserved.

WARNING:XDL:213 - The resulting xdl output will not have LUT equation strings or RAM INIT strings.
Loading device for application Rf_Device from file '6slx150t.nph' in environment C:\Xilinx\14.7\ISE_DS\ISE\.
   "gl1TCP" is an NCD, version 3.2, device xc6slx150t, package fgg676, speed -2
Successfully converted design 'C:\Users\takayuki\Documents\PT6\PT6gl_13\gl1TCP.ncd' to 'C:\Users\takayuki\Documents\PT6\PT6gl_13\gl1TCP.xdl'.
INFO: [Designutils 20-669] Parsing Placement File : C:/Users/takayuki/Documents/PT6/PT6gl_13/gl1TCP.ncd
WARNING: [Designutils 20-665] Net Name: ETH_TX_CLK. Found in file: C:/Users/takayuki/Documents/PT6/PT6gl_13/gl1TCP.ncd. Not Recognizable in the Context
INFO: [Designutils 20-658] Finished Parsing Placement File : C:/Users/takayuki/Documents/PT6/PT6gl_13/gl1TCP.ncd
INFO: [Designutils 20-671] Placed 10309 instances
read_xdl: Time (s): elapsed = 00:00:13 . Memory (MB): peak = 659.934 ; gain = 12.324
# if {[catch {read_twx -name results_1 -file "C:/Users/takayuki/Documents/PT6/PT6gl_13/gl1TCP.twx"} eInfo]} {
#    puts "WARNING: there was a problem importing \"C:/Users/takayuki/Documents/PT6/PT6gl_13/gl1TCP.twx\": $eInfo"
# }
exit
ERROR: [PlanAhead 12-106] *** Exception: ui.h.b: Found deleted key in HTclEventBroker. Verify if the classes listed here call cleanup()
HTclEvent: DEBUG_PORT_CONFIG_CHANGE   Classes: ui.views.aR 
HTclEvent: SIGNAL_BUS_MODIFY   Classes: ui.views.aR 
HTclEvent: SIGNAL_MODIFY   Classes: ui.views.aR 
HTclEvent: DEBUG_CORE_CONFIG_CHANGE   Classes: ui.views.aR 
 (See C:/Users/takayuki/Documents/PT6/PT6gl_13\planAhead_pid6252.debug)
ERROR: [Common 17-39] 'stop_gui' failed due to earlier errors.
INFO: [Common 17-206] Exiting PlanAhead at Wed Nov 26 11:34:56 2014...
INFO: [Common 17-83] Releasing license: PlanAhead
