10,
11,
12,
13,
14,
15,
16,
17,
18,
19,
1a,
1b,
1c,
1d,
1e,
1f,
11,
11,
12,
13,
14,
15,
16,
17,
18,
19,
1a,
1b,
1c,
1d,
1e,
1f,
12,
12,
12,
13,
14,
15,
16,
17,
18,
19,
1a,
1b,
1c,
1d,
1e,
1f,
13,
13,
13,
13,
14,
15,
16,
17,
18,
19,
1a,
1b,
1c,
1d,
1e,
1f,
14,
14,
14,
14,
14,
15,
16,
17,
18,
19,
1a,
1b,
1c,
1d,
1e,
1f,
15,
15,
15,
15,
15,
15,
16,
17,
18,
19,
1a,
1b,
1c,
1d,
1e,
1f,
16,
16,
16,
16,
16,
16,
16,
17,
18,
19,
1a,
1b,
1c,
1d,
1e,
1f,
17,
17,
17,
17,
17,
17,
17,
17,
18,
19,
1a,
1b,
1c,
1d,
1e,
1f,
18,
18,
18,
18,
18,
18,
18,
18,
18,
19,
1a,
1b,
1c,
1d,
1e,
1f,
19,
19,
19,
19,
19,
19,
19,
19,
19,
19,
1a,
1b,
1c,
1d,
1e,
1f,
1a,
1a,
1a,
1a,
1a,
1a,
1a,
1a,
1a,
1a,
1a,
1b,
1c,
1d,
1e,
1f,
1b,
1b,
1b,
1b,
1b,
1b,
1b,
1b,
1b,
1b,
1b,
1b,
1c,
1d,
1e,
1f,
1c,
1c,
1c,
1c,
1c,
1c,
1c,
1c,
1c,
1c,
1c,
1c,
1c,
1d,
1e,
1f,
1d,
1d,
1d,
1d,
1d,
1d,
1d,
1d,
1d,
1d,
1d,
1d,
1d,
1d,
1e,
1f,
1e,
1e,
1e,
1e,
1e,
1e,
1e,
1e,
1e,
1e,
1e,
1e,
1e,
1e,
1e,
1f,
1f,
1f,
1f,
1f,
1f,
1f,
1f,
1f,
1f,
1f,
1f,
1f,
1f,
1f,
1f,
1f,
01,
11,
12,
13,
14,
15,
16,
17,
18,
19,
1a,
1b,
1c,
1d,
1e,
1f,
11,
11,
12,
13,
14,
15,
16,
17,
18,
19,
1a,
1b,
1c,
1d,
1e,
1f,
12,
12,
12,
13,
14,
15,
16,
17,
18,
19,
1a,
1b,
1c,
1d,
1e,
1f,
13,
13,
13,
13,
14,
15,
16,
17,
18,
19,
1a,
1b,
1c,
1d,
1e,
1f,
14,
14,
14,
14,
14,
15,
16,
17,
18,
19,
1a,
1b,
1c,
1d,
1e,
1f,
15,
15,
15,
15,
15,
15,
16,
17,
18,
19,
1a,
1b,
1c,
1d,
1e,
1f,
16,
16,
16,
16,
16,
16,
16,
17,
18,
19,
1a,
1b,
1c,
1d,
1e,
1f,
17,
17,
17,
17,
17,
17,
17,
17,
18,
19,
1a,
1b,
1c,
1d,
1e,
1f,
18,
18,
18,
18,
18,
18,
18,
18,
18,
19,
1a,
1b,
1c,
1d,
1e,
1f,
19,
19,
19,
19,
19,
19,
19,
19,
19,
19,
1a,
1b,
1c,
1d,
1e,
1f,
1a,
1a,
1a,
1a,
1a,
1a,
1a,
1a,
1a,
1a,
1a,
1b,
1c,
1d,
1e,
1f,
1b,
1b,
1b,
1b,
1b,
1b,
1b,
1b,
1b,
1b,
1b,
1b,
1c,
1d,
1e,
1f,
1c,
1c,
1c,
1c,
1c,
1c,
1c,
1c,
1c,
1c,
1c,
1c,
1c,
1d,
1e,
1f,
1d,
1d,
1d,
1d,
1d,
1d,
1d,
1d,
1d,
1d,
1d,
1d,
1d,
1d,
1e,
1f,
1e,
1e,
1e,
1e,
1e,
1e,
1e,
1e,
1e,
1e,
1e,
1e,
1e,
1e,
1e,
1f,
1f,
1f,
1f,
1f,
1f,
1f,
1f,
1f,
1f,
1f,
1f,
1f,
1f,
1f,
1f,
1f,
02,
02,
12,
13,
14,
15,
16,
17,
18,
19,
1a,
1b,
1c,
1d,
1e,
1f,
02,
02,
12,
13,
14,
15,
16,
17,
18,
19,
1a,
1b,
1c,
1d,
1e,
1f,
12,
12,
12,
13,
14,
15,
16,
17,
18,
19,
1a,
1b,
1c,
1d,
1e,
1f,
13,
13,
13,
13,
14,
15,
16,
17,
18,
19,
1a,
1b,
1c,
1d,
1e,
1f,
14,
14,
14,
14,
14,
15,
16,
17,
18,
19,
1a,
1b,
1c,
1d,
1e,
1f,
15,
15,
15,
15,
15,
15,
16,
17,
18,
19,
1a,
1b,
1c,
1d,
1e,
1f,
16,
16,
16,
16,
16,
16,
16,
17,
18,
19,
1a,
1b,
1c,
1d,
1e,
1f,
17,
17,
17,
17,
17,
17,
17,
17,
18,
19,
1a,
1b,
1c,
1d,
1e,
1f,
18,
18,
18,
18,
18,
18,
18,
18,
18,
19,
1a,
1b,
1c,
1d,
1e,
1f,
19,
19,
19,
19,
19,
19,
19,
19,
19,
19,
1a,
1b,
1c,
1d,
1e,
1f,
1a,
1a,
1a,
1a,
1a,
1a,
1a,
1a,
1a,
1a,
1a,
1b,
1c,
1d,
1e,
1f,
1b,
1b,
1b,
1b,
1b,
1b,
1b,
1b,
1b,
1b,
1b,
1b,
1c,
1d,
1e,
1f,
1c,
1c,
1c,
1c,
1c,
1c,
1c,
1c,
1c,
1c,
1c,
1c,
1c,
1d,
1e,
1f,
1d,
1d,
1d,
1d,
1d,
1d,
1d,
1d,
1d,
1d,
1d,
1d,
1d,
1d,
1e,
1f,
1e,
1e,
1e,
1e,
1e,
1e,
1e,
1e,
1e,
1e,
1e,
1e,
1e,
1e,
1e,
1f,
1f,
1f,
1f,
1f,
1f,
1f,
1f,
1f,
1f,
1f,
1f,
1f,
1f,
1f,
1f,
1f,
03,
03,
03,
13,
14,
15,
16,
17,
18,
19,
1a,
1b,
1c,
1d,
1e,
1f,
03,
03,
03,
13,
14,
15,
16,
17,
18,
19,
1a,
1b,
1c,
1d,
1e,
1f,
03,
03,
03,
13,
14,
15,
16,
17,
18,
19,
1a,
1b,
1c,
1d,
1e,
1f,
13,
13,
13,
13,
14,
15,
16,
17,
18,
19,
1a,
1b,
1c,
1d,
1e,
1f,
14,
14,
14,
14,
14,
15,
16,
17,
18,
19,
1a,
1b,
1c,
1d,
1e,
1f,
15,
15,
15,
15,
15,
15,
16,
17,
18,
19,
1a,
1b,
1c,
1d,
1e,
1f,
16,
16,
16,
16,
16,
16,
16,
17,
18,
19,
1a,
1b,
1c,
1d,
1e,
1f,
17,
17,
17,
17,
17,
17,
17,
17,
18,
19,
1a,
1b,
1c,
1d,
1e,
1f,
18,
18,
18,
18,
18,
18,
18,
18,
18,
19,
1a,
1b,
1c,
1d,
1e,
1f,
19,
19,
19,
19,
19,
19,
19,
19,
19,
19,
1a,
1b,
1c,
1d,
1e,
1f,
1a,
1a,
1a,
1a,
1a,
1a,
1a,
1a,
1a,
1a,
1a,
1b,
1c,
1d,
1e,
1f,
1b,
1b,
1b,
1b,
1b,
1b,
1b,
1b,
1b,
1b,
1b,
1b,
1c,
1d,
1e,
1f,
1c,
1c,
1c,
1c,
1c,
1c,
1c,
1c,
1c,
1c,
1c,
1c,
1c,
1d,
1e,
1f,
1d,
1d,
1d,
1d,
1d,
1d,
1d,
1d,
1d,
1d,
1d,
1d,
1d,
1d,
1e,
1f,
1e,
1e,
1e,
1e,
1e,
1e,
1e,
1e,
1e,
1e,
1e,
1e,
1e,
1e,
1e,
1f,
1f,
1f,
1f,
1f,
1f,
1f,
1f,
1f,
1f,
1f,
1f,
1f,
1f,
1f,
1f,
1f,
04,
04,
04,
04,
14,
15,
16,
17,
18,
19,
1a,
1b,
1c,
1d,
1e,
1f,
04,
04,
04,
04,
14,
15,
16,
17,
18,
19,
1a,
1b,
1c,
1d,
1e,
1f,
04,
04,
04,
04,
14,
15,
16,
17,
18,
19,
1a,
1b,
1c,
1d,
1e,
1f,
04,
04,
04,
04,
14,
15,
16,
17,
18,
19,
1a,
1b,
1c,
1d,
1e,
1f,
14,
14,
14,
14,
14,
15,
16,
17,
18,
19,
1a,
1b,
1c,
1d,
1e,
1f,
15,
15,
15,
15,
15,
15,
16,
17,
18,
19,
1a,
1b,
1c,
1d,
1e,
1f,
16,
16,
16,
16,
16,
16,
16,
17,
18,
19,
1a,
1b,
1c,
1d,
1e,
1f,
17,
17,
17,
17,
17,
17,
17,
17,
18,
19,
1a,
1b,
1c,
1d,
1e,
1f,
18,
18,
18,
18,
18,
18,
18,
18,
18,
19,
1a,
1b,
1c,
1d,
1e,
1f,
19,
19,
19,
19,
19,
19,
19,
19,
19,
19,
1a,
1b,
1c,
1d,
1e,
1f,
1a,
1a,
1a,
1a,
1a,
1a,
1a,
1a,
1a,
1a,
1a,
1b,
1c,
1d,
1e,
1f,
1b,
1b,
1b,
1b,
1b,
1b,
1b,
1b,
1b,
1b,
1b,
1b,
1c,
1d,
1e,
1f,
1c,
1c,
1c,
1c,
1c,
1c,
1c,
1c,
1c,
1c,
1c,
1c,
1c,
1d,
1e,
1f,
1d,
1d,
1d,
1d,
1d,
1d,
1d,
1d,
1d,
1d,
1d,
1d,
1d,
1d,
1e,
1f,
1e,
1e,
1e,
1e,
1e,
1e,
1e,
1e,
1e,
1e,
1e,
1e,
1e,
1e,
1e,
1f,
1f,
1f,
1f,
1f,
1f,
1f,
1f,
1f,
1f,
1f,
1f,
1f,
1f,
1f,
1f,
1f,
05,
05,
05,
05,
05,
15,
16,
17,
18,
19,
1a,
1b,
1c,
1d,
1e,
1f,
05,
05,
05,
05,
05,
15,
16,
17,
18,
19,
1a,
1b,
1c,
1d,
1e,
1f,
05,
05,
05,
05,
05,
15,
16,
17,
18,
19,
1a,
1b,
1c,
1d,
1e,
1f,
05,
05,
05,
05,
05,
15,
16,
17,
18,
19,
1a,
1b,
1c,
1d,
1e,
1f,
05,
05,
05,
05,
05,
15,
16,
17,
18,
19,
1a,
1b,
1c,
1d,
1e,
1f,
15,
15,
15,
15,
15,
15,
16,
17,
18,
19,
1a,
1b,
1c,
1d,
1e,
1f,
16,
16,
16,
16,
16,
16,
16,
17,
18,
19,
1a,
1b,
1c,
1d,
1e,
1f,
17,
17,
17,
17,
17,
17,
17,
17,
18,
19,
1a,
1b,
1c,
1d,
1e,
1f,
18,
18,
18,
18,
18,
18,
18,
18,
18,
19,
1a,
1b,
1c,
1d,
1e,
1f,
19,
19,
19,
19,
19,
19,
19,
19,
19,
19,
1a,
1b,
1c,
1d,
1e,
1f,
1a,
1a,
1a,
1a,
1a,
1a,
1a,
1a,
1a,
1a,
1a,
1b,
1c,
1d,
1e,
1f,
1b,
1b,
1b,
1b,
1b,
1b,
1b,
1b,
1b,
1b,
1b,
1b,
1c,
1d,
1e,
1f,
1c,
1c,
1c,
1c,
1c,
1c,
1c,
1c,
1c,
1c,
1c,
1c,
1c,
1d,
1e,
1f,
1d,
1d,
1d,
1d,
1d,
1d,
1d,
1d,
1d,
1d,
1d,
1d,
1d,
1d,
1e,
1f,
1e,
1e,
1e,
1e,
1e,
1e,
1e,
1e,
1e,
1e,
1e,
1e,
1e,
1e,
1e,
1f,
1f,
1f,
1f,
1f,
1f,
1f,
1f,
1f,
1f,
1f,
1f,
1f,
1f,
1f,
1f,
1f,
06,
06,
06,
06,
06,
06,
16,
17,
18,
19,
1a,
1b,
1c,
1d,
1e,
1f,
06,
06,
06,
06,
06,
06,
16,
17,
18,
19,
1a,
1b,
1c,
1d,
1e,
1f,
06,
06,
06,
06,
06,
06,
16,
17,
18,
19,
1a,
1b,
1c,
1d,
1e,
1f,
06,
06,
06,
06,
06,
06,
16,
17,
18,
19,
1a,
1b,
1c,
1d,
1e,
1f,
06,
06,
06,
06,
06,
06,
16,
17,
18,
19,
1a,
1b,
1c,
1d,
1e,
1f,
06,
06,
06,
06,
06,
06,
16,
17,
18,
19,
1a,
1b,
1c,
1d,
1e,
1f,
16,
16,
16,
16,
16,
16,
16,
17,
18,
19,
1a,
1b,
1c,
1d,
1e,
1f,
17,
17,
17,
17,
17,
17,
17,
17,
18,
19,
1a,
1b,
1c,
1d,
1e,
1f,
18,
18,
18,
18,
18,
18,
18,
18,
18,
19,
1a,
1b,
1c,
1d,
1e,
1f,
19,
19,
19,
19,
19,
19,
19,
19,
19,
19,
1a,
1b,
1c,
1d,
1e,
1f,
1a,
1a,
1a,
1a,
1a,
1a,
1a,
1a,
1a,
1a,
1a,
1b,
1c,
1d,
1e,
1f,
1b,
1b,
1b,
1b,
1b,
1b,
1b,
1b,
1b,
1b,
1b,
1b,
1c,
1d,
1e,
1f,
1c,
1c,
1c,
1c,
1c,
1c,
1c,
1c,
1c,
1c,
1c,
1c,
1c,
1d,
1e,
1f,
1d,
1d,
1d,
1d,
1d,
1d,
1d,
1d,
1d,
1d,
1d,
1d,
1d,
1d,
1e,
1f,
1e,
1e,
1e,
1e,
1e,
1e,
1e,
1e,
1e,
1e,
1e,
1e,
1e,
1e,
1e,
1f,
1f,
1f,
1f,
1f,
1f,
1f,
1f,
1f,
1f,
1f,
1f,
1f,
1f,
1f,
1f,
1f,
07,
07,
07,
07,
07,
07,
07,
17,
18,
19,
1a,
1b,
1c,
1d,
1e,
1f,
07,
07,
07,
07,
07,
07,
07,
17,
18,
19,
1a,
1b,
1c,
1d,
1e,
1f,
07,
07,
07,
07,
07,
07,
07,
17,
18,
19,
1a,
1b,
1c,
1d,
1e,
1f,
07,
07,
07,
07,
07,
07,
07,
17,
18,
19,
1a,
1b,
1c,
1d,
1e,
1f,
07,
07,
07,
07,
07,
07,
07,
17,
18,
19,
1a,
1b,
1c,
1d,
1e,
1f,
07,
07,
07,
07,
07,
07,
07,
17,
18,
19,
1a,
1b,
1c,
1d,
1e,
1f,
07,
07,
07,
07,
07,
07,
07,
17,
18,
19,
1a,
1b,
1c,
1d,
1e,
1f,
17,
17,
17,
17,
17,
17,
17,
17,
18,
19,
1a,
1b,
1c,
1d,
1e,
1f,
18,
18,
18,
18,
18,
18,
18,
18,
18,
19,
1a,
1b,
1c,
1d,
1e,
1f,
19,
19,
19,
19,
19,
19,
19,
19,
19,
19,
1a,
1b,
1c,
1d,
1e,
1f,
1a,
1a,
1a,
1a,
1a,
1a,
1a,
1a,
1a,
1a,
1a,
1b,
1c,
1d,
1e,
1f,
1b,
1b,
1b,
1b,
1b,
1b,
1b,
1b,
1b,
1b,
1b,
1b,
1c,
1d,
1e,
1f,
1c,
1c,
1c,
1c,
1c,
1c,
1c,
1c,
1c,
1c,
1c,
1c,
1c,
1d,
1e,
1f,
1d,
1d,
1d,
1d,
1d,
1d,
1d,
1d,
1d,
1d,
1d,
1d,
1d,
1d,
1e,
1f,
1e,
1e,
1e,
1e,
1e,
1e,
1e,
1e,
1e,
1e,
1e,
1e,
1e,
1e,
1e,
1f,
1f,
1f,
1f,
1f,
1f,
1f,
1f,
1f,
1f,
1f,
1f,
1f,
1f,
1f,
1f,
1f,
08,
08,
08,
08,
08,
08,
08,
08,
18,
19,
1a,
1b,
1c,
1d,
1e,
1f,
08,
08,
08,
08,
08,
08,
08,
08,
18,
19,
1a,
1b,
1c,
1d,
1e,
1f,
08,
08,
08,
08,
08,
08,
08,
08,
18,
19,
1a,
1b,
1c,
1d,
1e,
1f,
08,
08,
08,
08,
08,
08,
08,
08,
18,
19,
1a,
1b,
1c,
1d,
1e,
1f,
08,
08,
08,
08,
08,
08,
08,
08,
18,
19,
1a,
1b,
1c,
1d,
1e,
1f,
08,
08,
08,
08,
08,
08,
08,
08,
18,
19,
1a,
1b,
1c,
1d,
1e,
1f,
08,
08,
08,
08,
08,
08,
08,
08,
18,
19,
1a,
1b,
1c,
1d,
1e,
1f,
08,
08,
08,
08,
08,
08,
08,
08,
18,
19,
1a,
1b,
1c,
1d,
1e,
1f,
18,
18,
18,
18,
18,
18,
18,
18,
18,
19,
1a,
1b,
1c,
1d,
1e,
1f,
19,
19,
19,
19,
19,
19,
19,
19,
19,
19,
1a,
1b,
1c,
1d,
1e,
1f,
1a,
1a,
1a,
1a,
1a,
1a,
1a,
1a,
1a,
1a,
1a,
1b,
1c,
1d,
1e,
1f,
1b,
1b,
1b,
1b,
1b,
1b,
1b,
1b,
1b,
1b,
1b,
1b,
1c,
1d,
1e,
1f,
1c,
1c,
1c,
1c,
1c,
1c,
1c,
1c,
1c,
1c,
1c,
1c,
1c,
1d,
1e,
1f,
1d,
1d,
1d,
1d,
1d,
1d,
1d,
1d,
1d,
1d,
1d,
1d,
1d,
1d,
1e,
1f,
1e,
1e,
1e,
1e,
1e,
1e,
1e,
1e,
1e,
1e,
1e,
1e,
1e,
1e,
1e,
1f,
1f,
1f,
1f,
1f,
1f,
1f,
1f,
1f,
1f,
1f,
1f,
1f,
1f,
1f,
1f,
1f,
09,
09,
09,
09,
09,
09,
09,
09,
09,
19,
1a,
1b,
1c,
1d,
1e,
1f,
09,
09,
09,
09,
09,
09,
09,
09,
09,
19,
1a,
1b,
1c,
1d,
1e,
1f,
09,
09,
09,
09,
09,
09,
09,
09,
09,
19,
1a,
1b,
1c,
1d,
1e,
1f,
09,
09,
09,
09,
09,
09,
09,
09,
09,
19,
1a,
1b,
1c,
1d,
1e,
1f,
09,
09,
09,
09,
09,
09,
09,
09,
09,
19,
1a,
1b,
1c,
1d,
1e,
1f,
09,
09,
09,
09,
09,
09,
09,
09,
09,
19,
1a,
1b,
1c,
1d,
1e,
1f,
09,
09,
09,
09,
09,
09,
09,
09,
09,
19,
1a,
1b,
1c,
1d,
1e,
1f,
09,
09,
09,
09,
09,
09,
09,
09,
09,
19,
1a,
1b,
1c,
1d,
1e,
1f,
09,
09,
09,
09,
09,
09,
09,
09,
09,
19,
1a,
1b,
1c,
1d,
1e,
1f,
19,
19,
19,
19,
19,
19,
19,
19,
19,
19,
1a,
1b,
1c,
1d,
1e,
1f,
1a,
1a,
1a,
1a,
1a,
1a,
1a,
1a,
1a,
1a,
1a,
1b,
1c,
1d,
1e,
1f,
1b,
1b,
1b,
1b,
1b,
1b,
1b,
1b,
1b,
1b,
1b,
1b,
1c,
1d,
1e,
1f,
1c,
1c,
1c,
1c,
1c,
1c,
1c,
1c,
1c,
1c,
1c,
1c,
1c,
1d,
1e,
1f,
1d,
1d,
1d,
1d,
1d,
1d,
1d,
1d,
1d,
1d,
1d,
1d,
1d,
1d,
1e,
1f,
1e,
1e,
1e,
1e,
1e,
1e,
1e,
1e,
1e,
1e,
1e,
1e,
1e,
1e,
1e,
1f,
1f,
1f,
1f,
1f,
1f,
1f,
1f,
1f,
1f,
1f,
1f,
1f,
1f,
1f,
1f,
1f,
0a,
0a,
0a,
0a,
0a,
0a,
0a,
0a,
0a,
0a,
1a,
1b,
1c,
1d,
1e,
1f,
0a,
0a,
0a,
0a,
0a,
0a,
0a,
0a,
0a,
0a,
1a,
1b,
1c,
1d,
1e,
1f,
0a,
0a,
0a,
0a,
0a,
0a,
0a,
0a,
0a,
0a,
1a,
1b,
1c,
1d,
1e,
1f,
0a,
0a,
0a,
0a,
0a,
0a,
0a,
0a,
0a,
0a,
1a,
1b,
1c,
1d,
1e,
1f,
0a,
0a,
0a,
0a,
0a,
0a,
0a,
0a,
0a,
0a,
1a,
1b,
1c,
1d,
1e,
1f,
0a,
0a,
0a,
0a,
0a,
0a,
0a,
0a,
0a,
0a,
1a,
1b,
1c,
1d,
1e,
1f,
0a,
0a,
0a,
0a,
0a,
0a,
0a,
0a,
0a,
0a,
1a,
1b,
1c,
1d,
1e,
1f,
0a,
0a,
0a,
0a,
0a,
0a,
0a,
0a,
0a,
0a,
1a,
1b,
1c,
1d,
1e,
1f,
0a,
0a,
0a,
0a,
0a,
0a,
0a,
0a,
0a,
0a,
1a,
1b,
1c,
1d,
1e,
1f,
0a,
0a,
0a,
0a,
0a,
0a,
0a,
0a,
0a,
0a,
1a,
1b,
1c,
1d,
1e,
1f,
1a,
1a,
1a,
1a,
1a,
1a,
1a,
1a,
1a,
1a,
1a,
1b,
1c,
1d,
1e,
1f,
1b,
1b,
1b,
1b,
1b,
1b,
1b,
1b,
1b,
1b,
1b,
1b,
1c,
1d,
1e,
1f,
1c,
1c,
1c,
1c,
1c,
1c,
1c,
1c,
1c,
1c,
1c,
1c,
1c,
1d,
1e,
1f,
1d,
1d,
1d,
1d,
1d,
1d,
1d,
1d,
1d,
1d,
1d,
1d,
1d,
1d,
1e,
1f,
1e,
1e,
1e,
1e,
1e,
1e,
1e,
1e,
1e,
1e,
1e,
1e,
1e,
1e,
1e,
1f,
1f,
1f,
1f,
1f,
1f,
1f,
1f,
1f,
1f,
1f,
1f,
1f,
1f,
1f,
1f,
1f,
0b,
0b,
0b,
0b,
0b,
0b,
0b,
0b,
0b,
0b,
0b,
1b,
1c,
1d,
1e,
1f,
0b,
0b,
0b,
0b,
0b,
0b,
0b,
0b,
0b,
0b,
0b,
1b,
1c,
1d,
1e,
1f,
0b,
0b,
0b,
0b,
0b,
0b,
0b,
0b,
0b,
0b,
0b,
1b,
1c,
1d,
1e,
1f,
0b,
0b,
0b,
0b,
0b,
0b,
0b,
0b,
0b,
0b,
0b,
1b,
1c,
1d,
1e,
1f,
0b,
0b,
0b,
0b,
0b,
0b,
0b,
0b,
0b,
0b,
0b,
1b,
1c,
1d,
1e,
1f,
0b,
0b,
0b,
0b,
0b,
0b,
0b,
0b,
0b,
0b,
0b,
1b,
1c,
1d,
1e,
1f,
0b,
0b,
0b,
0b,
0b,
0b,
0b,
0b,
0b,
0b,
0b,
1b,
1c,
1d,
1e,
1f,
0b,
0b,
0b,
0b,
0b,
0b,
0b,
0b,
0b,
0b,
0b,
1b,
1c,
1d,
1e,
1f,
0b,
0b,
0b,
0b,
0b,
0b,
0b,
0b,
0b,
0b,
0b,
1b,
1c,
1d,
1e,
1f,
0b,
0b,
0b,
0b,
0b,
0b,
0b,
0b,
0b,
0b,
0b,
1b,
1c,
1d,
1e,
1f,
0b,
0b,
0b,
0b,
0b,
0b,
0b,
0b,
0b,
0b,
0b,
1b,
1c,
1d,
1e,
1f,
1b,
1b,
1b,
1b,
1b,
1b,
1b,
1b,
1b,
1b,
1b,
1b,
1c,
1d,
1e,
1f,
1c,
1c,
1c,
1c,
1c,
1c,
1c,
1c,
1c,
1c,
1c,
1c,
1c,
1d,
1e,
1f,
1d,
1d,
1d,
1d,
1d,
1d,
1d,
1d,
1d,
1d,
1d,
1d,
1d,
1d,
1e,
1f,
1e,
1e,
1e,
1e,
1e,
1e,
1e,
1e,
1e,
1e,
1e,
1e,
1e,
1e,
1e,
1f,
1f,
1f,
1f,
1f,
1f,
1f,
1f,
1f,
1f,
1f,
1f,
1f,
1f,
1f,
1f,
1f,
0c,
0c,
0c,
0c,
0c,
0c,
0c,
0c,
0c,
0c,
0c,
0c,
1c,
1d,
1e,
1f,
0c,
0c,
0c,
0c,
0c,
0c,
0c,
0c,
0c,
0c,
0c,
0c,
1c,
1d,
1e,
1f,
0c,
0c,
0c,
0c,
0c,
0c,
0c,
0c,
0c,
0c,
0c,
0c,
1c,
1d,
1e,
1f,
0c,
0c,
0c,
0c,
0c,
0c,
0c,
0c,
0c,
0c,
0c,
0c,
1c,
1d,
1e,
1f,
0c,
0c,
0c,
0c,
0c,
0c,
0c,
0c,
0c,
0c,
0c,
0c,
1c,
1d,
1e,
1f,
0c,
0c,
0c,
0c,
0c,
0c,
0c,
0c,
0c,
0c,
0c,
0c,
1c,
1d,
1e,
1f,
0c,
0c,
0c,
0c,
0c,
0c,
0c,
0c,
0c,
0c,
0c,
0c,
1c,
1d,
1e,
1f,
0c,
0c,
0c,
0c,
0c,
0c,
0c,
0c,
0c,
0c,
0c,
0c,
1c,
1d,
1e,
1f,
0c,
0c,
0c,
0c,
0c,
0c,
0c,
0c,
0c,
0c,
0c,
0c,
1c,
1d,
1e,
1f,
0c,
0c,
0c,
0c,
0c,
0c,
0c,
0c,
0c,
0c,
0c,
0c,
1c,
1d,
1e,
1f,
0c,
0c,
0c,
0c,
0c,
0c,
0c,
0c,
0c,
0c,
0c,
0c,
1c,
1d,
1e,
1f,
0c,
0c,
0c,
0c,
0c,
0c,
0c,
0c,
0c,
0c,
0c,
0c,
1c,
1d,
1e,
1f,
1c,
1c,
1c,
1c,
1c,
1c,
1c,
1c,
1c,
1c,
1c,
1c,
1c,
1d,
1e,
1f,
1d,
1d,
1d,
1d,
1d,
1d,
1d,
1d,
1d,
1d,
1d,
1d,
1d,
1d,
1e,
1f,
1e,
1e,
1e,
1e,
1e,
1e,
1e,
1e,
1e,
1e,
1e,
1e,
1e,
1e,
1e,
1f,
1f,
1f,
1f,
1f,
1f,
1f,
1f,
1f,
1f,
1f,
1f,
1f,
1f,
1f,
1f,
1f,
0d,
0d,
0d,
0d,
0d,
0d,
0d,
0d,
0d,
0d,
0d,
0d,
0d,
1d,
1e,
1f,
0d,
0d,
0d,
0d,
0d,
0d,
0d,
0d,
0d,
0d,
0d,
0d,
0d,
1d,
1e,
1f,
0d,
0d,
0d,
0d,
0d,
0d,
0d,
0d,
0d,
0d,
0d,
0d,
0d,
1d,
1e,
1f,
0d,
0d,
0d,
0d,
0d,
0d,
0d,
0d,
0d,
0d,
0d,
0d,
0d,
1d,
1e,
1f,
0d,
0d,
0d,
0d,
0d,
0d,
0d,
0d,
0d,
0d,
0d,
0d,
0d,
1d,
1e,
1f,
0d,
0d,
0d,
0d,
0d,
0d,
0d,
0d,
0d,
0d,
0d,
0d,
0d,
1d,
1e,
1f,
0d,
0d,
0d,
0d,
0d,
0d,
0d,
0d,
0d,
0d,
0d,
0d,
0d,
1d,
1e,
1f,
0d,
0d,
0d,
0d,
0d,
0d,
0d,
0d,
0d,
0d,
0d,
0d,
0d,
1d,
1e,
1f,
0d,
0d,
0d,
0d,
0d,
0d,
0d,
0d,
0d,
0d,
0d,
0d,
0d,
1d,
1e,
1f,
0d,
0d,
0d,
0d,
0d,
0d,
0d,
0d,
0d,
0d,
0d,
0d,
0d,
1d,
1e,
1f,
0d,
0d,
0d,
0d,
0d,
0d,
0d,
0d,
0d,
0d,
0d,
0d,
0d,
1d,
1e,
1f,
0d,
0d,
0d,
0d,
0d,
0d,
0d,
0d,
0d,
0d,
0d,
0d,
0d,
1d,
1e,
1f,
0d,
0d,
0d,
0d,
0d,
0d,
0d,
0d,
0d,
0d,
0d,
0d,
0d,
1d,
1e,
1f,
1d,
1d,
1d,
1d,
1d,
1d,
1d,
1d,
1d,
1d,
1d,
1d,
1d,
1d,
1e,
1f,
1e,
1e,
1e,
1e,
1e,
1e,
1e,
1e,
1e,
1e,
1e,
1e,
1e,
1e,
1e,
1f,
1f,
1f,
1f,
1f,
1f,
1f,
1f,
1f,
1f,
1f,
1f,
1f,
1f,
1f,
1f,
1f,
0e,
0e,
0e,
0e,
0e,
0e,
0e,
0e,
0e,
0e,
0e,
0e,
0e,
0e,
1e,
1f,
0e,
0e,
0e,
0e,
0e,
0e,
0e,
0e,
0e,
0e,
0e,
0e,
0e,
0e,
1e,
1f,
0e,
0e,
0e,
0e,
0e,
0e,
0e,
0e,
0e,
0e,
0e,
0e,
0e,
0e,
1e,
1f,
0e,
0e,
0e,
0e,
0e,
0e,
0e,
0e,
0e,
0e,
0e,
0e,
0e,
0e,
1e,
1f,
0e,
0e,
0e,
0e,
0e,
0e,
0e,
0e,
0e,
0e,
0e,
0e,
0e,
0e,
1e,
1f,
0e,
0e,
0e,
0e,
0e,
0e,
0e,
0e,
0e,
0e,
0e,
0e,
0e,
0e,
1e,
1f,
0e,
0e,
0e,
0e,
0e,
0e,
0e,
0e,
0e,
0e,
0e,
0e,
0e,
0e,
1e,
1f,
0e,
0e,
0e,
0e,
0e,
0e,
0e,
0e,
0e,
0e,
0e,
0e,
0e,
0e,
1e,
1f,
0e,
0e,
0e,
0e,
0e,
0e,
0e,
0e,
0e,
0e,
0e,
0e,
0e,
0e,
1e,
1f,
0e,
0e,
0e,
0e,
0e,
0e,
0e,
0e,
0e,
0e,
0e,
0e,
0e,
0e,
1e,
1f,
0e,
0e,
0e,
0e,
0e,
0e,
0e,
0e,
0e,
0e,
0e,
0e,
0e,
0e,
1e,
1f,
0e,
0e,
0e,
0e,
0e,
0e,
0e,
0e,
0e,
0e,
0e,
0e,
0e,
0e,
1e,
1f,
0e,
0e,
0e,
0e,
0e,
0e,
0e,
0e,
0e,
0e,
0e,
0e,
0e,
0e,
1e,
1f,
0e,
0e,
0e,
0e,
0e,
0e,
0e,
0e,
0e,
0e,
0e,
0e,
0e,
0e,
1e,
1f,
1e,
1e,
1e,
1e,
1e,
1e,
1e,
1e,
1e,
1e,
1e,
1e,
1e,
1e,
1e,
1f,
1f,
1f,
1f,
1f,
1f,
1f,
1f,
1f,
1f,
1f,
1f,
1f,
1f,
1f,
1f,
1f,
0f,
0f,
0f,
0f,
0f,
0f,
0f,
0f,
0f,
0f,
0f,
0f,
0f,
0f,
0f,
1f,
0f,
0f,
0f,
0f,
0f,
0f,
0f,
0f,
0f,
0f,
0f,
0f,
0f,
0f,
0f,
1f,
0f,
0f,
0f,
0f,
0f,
0f,
0f,
0f,
0f,
0f,
0f,
0f,
0f,
0f,
0f,
1f,
0f,
0f,
0f,
0f,
0f,
0f,
0f,
0f,
0f,
0f,
0f,
0f,
0f,
0f,
0f,
1f,
0f,
0f,
0f,
0f,
0f,
0f,
0f,
0f,
0f,
0f,
0f,
0f,
0f,
0f,
0f,
1f,
0f,
0f,
0f,
0f,
0f,
0f,
0f,
0f,
0f,
0f,
0f,
0f,
0f,
0f,
0f,
1f,
0f,
0f,
0f,
0f,
0f,
0f,
0f,
0f,
0f,
0f,
0f,
0f,
0f,
0f,
0f,
1f,
0f,
0f,
0f,
0f,
0f,
0f,
0f,
0f,
0f,
0f,
0f,
0f,
0f,
0f,
0f,
1f,
0f,
0f,
0f,
0f,
0f,
0f,
0f,
0f,
0f,
0f,
0f,
0f,
0f,
0f,
0f,
1f,
0f,
0f,
0f,
0f,
0f,
0f,
0f,
0f,
0f,
0f,
0f,
0f,
0f,
0f,
0f,
1f,
0f,
0f,
0f,
0f,
0f,
0f,
0f,
0f,
0f,
0f,
0f,
0f,
0f,
0f,
0f,
1f,
0f,
0f,
0f,
0f,
0f,
0f,
0f,
0f,
0f,
0f,
0f,
0f,
0f,
0f,
0f,
1f,
0f,
0f,
0f,
0f,
0f,
0f,
0f,
0f,
0f,
0f,
0f,
0f,
0f,
0f,
0f,
1f,
0f,
0f,
0f,
0f,
0f,
0f,
0f,
0f,
0f,
0f,
0f,
0f,
0f,
0f,
0f,
1f,
0f,
0f,
0f,
0f,
0f,
0f,
0f,
0f,
0f,
0f,
0f,
0f,
0f,
0f,
0f,
1f,
1f,
1f,
1f,
1f,
1f,
1f,
1f,
1f,
1f,
1f,
1f,
1f,
1f,
1f,
1f,
1f,
