C:\Users\root\Desktop\pt6\FPGA\glbuftcp2\glRXRXTCP\glbufTCP2.ngc 1441012531
../roopbackfifo.ngc 1441011708
../SiTCP_XC6S_16K_BBT_V50.ngc 1441011708
../glbuf.ngc 1441011708
../fifo32_8.ngc 1441011708
OK
