verilog work "ipcore_dir/dcm25.v"
verilog work "TIMER.v"
verilog work "SiTCP_XC6S_16K_BBT_V80.V"
verilog work "s6_gtpwizard_v1_7_tile.v"
verilog work "WRAP_SiTCP_GMII_XC6S_16K.V"
verilog work "vmeif.v"
verilog work "SYSDCM.v"
verilog work "s6_gtpwizard_v1_7.v"
verilog work "RBCP_REG.v"
verilog work "ipcore_dir/fifo_generator_16to8.v"
verilog work "main.v"
